NACA65(12)10
0	0	0
-0.087631	0.079701	0
-0.161368	0.185378	0
-0.221601	0.315869	0
-0.268705	0.470043	0
-0.303033	0.646801	0
-0.324924	0.845072	0
-0.334701	1.063816	0
-0.33267	1.302022	0
-0.319122	1.558705	0
-0.294334	1.832912	0
-0.258569	2.123713	0
-0.212077	2.430208	0
-0.155095	2.751523	0
-0.087849	3.086809	0
-0.010552	3.435243	0
0.076592	3.796027	0
0.173391	4.168387	0
0.279661	4.551573	0
0.395228	4.94486	0
0.519926	5.347544	0
0.653597	5.758944	0
0.796089	6.1784	0
0.947259	6.605277	0
1.106967	7.038957	0
1.275081	7.478844	0
1.451472	7.924363	0
1.636016	8.374956	0
1.828593	8.830087	0
2.029085	9.289236	0
2.237377	9.751902	0
2.453355	10.217602	0
2.676909	10.685868	0
2.907926	11.156252	0
3.146295	11.628319	0
3.391905	12.10165	0
3.644643	12.575842	0
3.904393	13.050506	0
4.17104	13.525268	0
4.444464	13.999765	0
4.724543	14.47365	0
5.011148	14.946587	0
5.304149	15.418253	0
5.603409	15.888334	0
5.908786	16.356531	0
6.220132	16.822552	0
6.537291	17.286118	0
6.8601	17.746958	0
7.18839	18.20481	0
7.52198	18.659422	0
7.860682	19.110548	0
8.2043	19.557952	0
8.552623	20.001404	0
8.905435	20.44068	0
9.262504	20.875563	0
9.623588	21.305842	0
9.988434	21.731311	0
10.356773	22.151768	0
10.728325	22.567015	0
11.102794	22.97686	0
11.479872	23.381112	0
11.859231	23.779584	0
12.240534	24.17209	0
12.623421	24.558447	0
13.007519	24.938472	0
13.392438	25.311985	0
13.777769	25.678805	0
14.163082	26.038749	0
14.547933	26.391636	0
14.931855	26.737284	0
15.314361	27.075508	0
15.694946	27.40612	0
16.073081	27.728933	0
16.448216	28.043752	0
16.81978	28.350383	0
17.187179	28.648626	0
17.549793	28.938275	0
17.906982	29.219122	0
18.25808	29.490951	0
18.602395	29.753541	0
18.939212	30.006665	0
19.267789	30.250089	0
19.587356	30.48357	0
19.897119	30.706858	0
20.196253	30.919696	0
20.48391	31.121817	0
20.759208	31.312944	0
21.021239	31.49279	0
21.269066	31.66106	0
21.501719	31.817445	0
21.718202	31.961627	0
21.917482	32.093275	0
22.098501	32.212047	0
22.260163	32.317587	0
22.401343	32.409527	0
22.520882	32.487484	0
22.617587	32.551061	0
22.690231	32.599847	0
22.737553	32.633416	0
22.758256	32.651326	0
0	0	0
0.030476	-0.002998	0
0.07502	0.019857	0
0.133124	0.067487	0
0.204284	0.138853	0
0.288	0.232955	0
0.38378	0.348832	0
0.491137	0.485558	0
0.609592	0.642243	0
0.738674	0.818029	0
0.877921	1.01209	0
1.026877	1.223634	0
1.1851	1.451895	0
1.352153	1.696137	0
1.527613	1.95565	0
1.711066	2.229753	0
1.902109	2.517786	0
2.10035	2.819115	0
2.305411	3.133128	0
2.516923	3.459234	0
2.73453	3.796861	0
2.957889	4.145461	0
3.186669	4.504498	0
3.420552	4.873459	0
3.659231	5.251843	0
3.902414	5.639166	0
4.14982	6.034959	0
4.401182	6.438766	0
4.656244	6.850144	0
4.914765	7.268661	0
5.176514	7.693896	0
5.441274	8.125438	0
5.70884	8.562888	0
5.979017	9.005851	0
6.251624	9.453944	0
6.52649	9.906789	0
6.803457	10.364016	0
7.082375	10.825259	0
7.363106	11.290159	0
7.645522	11.75836	0
7.929504	12.229512	0
8.214942	12.703267	0
8.501734	13.17928	0
8.789786	13.657209	0
9.079013	14.136714	0
9.369336	14.617456	0
9.66068	15.099098	0
9.952978	15.581302	0
10.246165	16.063733	0
10.540184	16.546053	0
10.834977	17.027925	0
11.13049	17.509012	0
11.426671	17.988974	0
11.723467	18.467472	0
12.020827	18.944165	0
12.318695	19.418708	0
12.617018	19.890757	0
12.915734	20.359964	0
13.21478	20.825981	0
13.514087	21.288455	0
13.813579	21.747033	0
14.113172	22.201358	0
14.412775	22.65107	0
14.712283	23.09581	0
15.011584	23.535211	0
15.310551	23.968909	0
15.609041	24.396534	0
15.9069	24.817714	0
16.203954	25.232078	0
16.500013	25.639248	0
16.794864	26.038849	0
17.088276	26.4305	0
17.379995	26.813822	0
17.669741	27.188432	0
17.957209	27.553947	0
18.242068	27.909984	0
18.523955	28.256159	0
18.80248	28.592087	0
19.077216	28.917385	0
19.347705	29.231669	0
19.613452	29.534557	0
19.873924	29.825668	0
20.128548	30.104623	0
20.376709	30.371045	0
20.61775	30.624562	0
20.850966	30.864802	0
21.075606	31.091399	0
21.29087	31.303992	0
21.495905	31.502225	0
21.689805	31.685745	0
21.871608	31.85421	0
22.040293	32.007282	0
22.19478	32.144631	0
22.333927	32.265937	0
22.456525	32.370888	0
22.5613	32.459182	0
22.646908	32.53053	0
22.711934	32.584651	0
22.754887	32.621279	0
22.7742	32.640162	0