NACA65(12)10_ps
0	0
0.0125000000000000	-0.00668442226016457
0.0250000000000000	-0.00463876658898056
0.0500000000000000	-0.00190193858004671
0.0750000000000000	-2.59723194831508e-05
0.100000000000000	0.00141251769250766
0.150000000000000	0.00366481847397881
0.200000000000000	0.00561227853515160
0.300000000000000	0.00960113208653066
0.400000000000000	0.0141350977190375
0.500000000000000	0.0189923090281813
0.600000000000000	0.0235152761828163
0.700000000000000	0.0267140364004783
0.800000000000000	0.0271630034720484
0.900000000000000	0.0224587054115239
0.950000000000000	0.0165237673979649
1 0